{"scenario_dimension": [50, 50],
  "pedestrians": [{"_position": [4, 4], "_desired_speed": 1.33, "_remaining_traversal": 0}],
  "targets": [[43, 4]],  "measurement_points":[],
  "obstacles": [[3, 2], [4, 2], [5, 2], [6, 2], [7, 2], [8, 2], [9, 2], [10, 2], [11, 2], [12, 2], [13, 2],
	[14, 2], [15, 2], [16, 2], [17, 2], [18, 2], [19, 2], [20, 2], [21, 2], [22, 2], [23, 2], [24, 2], [25, 2],
	[26, 2], [27, 2], [28, 2], [29, 2], [30, 2], [31, 2], [32, 2], [33, 2], [34, 2], [35, 2], [36, 2], [37, 2],
	[38, 2], [39, 2], [40, 2], [41, 2], [42, 2], [43, 2], [3, 5], [4, 5], [5, 5], [6, 5], [7, 5], [8, 5], [9, 5],
	[10, 5], [11, 5], [12, 5], [13, 5], [14, 5], [15, 5], [16, 5], [17, 5], [18, 5], [19, 5], [20, 5], [21, 5],
	[22, 5], [23, 5], [24, 5], [25, 5], [26, 5], [27, 5], [28, 5], [29, 5], [30, 5], [31, 5], [32, 5], [33, 5],
	[34, 5], [35, 5], [36, 5], [37, 5], [38, 5], [39, 5], [40, 5], [41, 5], [42, 5],[43, 5], [3,3], [3,4]]}
