{"scenario_dimension": [100, 100],
  "pedestrians": [
    {"_position": [25, 19], "_desired_speed": 2.3},
    {"_position": [1, 10], "_desired_speed": 2.1},
    {"_position": [80, 70], "_desired_speed": 2.1}],
  "measurement_points":[],
  "targets": [
    [23, 25], [23, 45], [25, 45]],
  "obstacles": [
    [16, 22],
    [16, 21],
    [16, 20],
    [16, 19],
    [16, 18],
    [32, 22],
    [32, 21],
    [32, 20],
    [32, 19],
    [32, 18],
    [16, 23],
    [17, 23],
    [18, 23],
    [19, 23],
    [20, 23],
    [21, 23],
    [22, 23],
    [23, 23],
    [24, 23],
    [25, 23],
    [26, 23],
    [27, 23],
    [28, 23],
    [29, 23],
    [30, 23],
    [31, 23],
    [32, 23]
    ]}
